UPDATE `t_gn_debitur` SET `score` = 6, `score_month` = 'Maret 2022'     WHERE `deb_cardno` =  '080823321840'
UPDATE `t_gn_debitur` SET `score` = 6, `score_month` = 'Maret 2022'     WHERE `deb_cardno` =  '080688187840'
UPDATE `t_gn_debitur` SET `score` = 2, `score_month` = 'Maret 2022'     WHERE `deb_cardno` =  '043739556840'
UPDATE `t_gn_debitur` SET `score` = 0, `score_month` = 'Maret 2022'     WHERE `deb_cardno` =  '045168945900'