UPDATE `t_gn_debitur` SET `score` = , `score_month` = 'Mei 2022'     WHERE `deb_cardno` =  '047029947900'
UPDATE `t_gn_debitur` SET `score` = , `score_month` = 'Mei 2022'     WHERE `deb_cardno` =  '047388566900'
UPDATE `t_gn_debitur` SET `score` = , `score_month` = 'Mei 2022'     WHERE `deb_cardno` =  '047324033900'
UPDATE `t_gn_debitur` SET `score` = , `score_month` = 'Mei 2022'     WHERE `deb_cardno` =  '047364435900'
UPDATE `t_gn_debitur` SET `score` = , `score_month` = 'Mei 2022'     WHERE `deb_cardno` =  '047351101900'
UPDATE `t_gn_debitur` SET `score` = , `score_month` = 'Mei 2022'     WHERE `deb_cardno` =  '043342344840'
UPDATE `t_gn_debitur` SET `score` = 2, `score_month` = 'Mei 2022'     WHERE `deb_cardno` =  '080592645840'
UPDATE `t_gn_debitur` SET `score` = 2, `score_month` = 'Mei 2022'     WHERE `deb_cardno` =  '043739556840'