success round debitur at 2016-05-26 17:36:47
not this time 2016-05-26 17:40:59
not this time 2016-05-26 17:42:40
not this time 2016-05-26 17:42:43
success round debitur at 2016-05-26 17:44:33
not this time 2016-05-26 17:49:09
not this time 2016-05-26 17:49:13
not this time 2016-05-26 17:49:15
not this time 2016-05-26 17:49:31
not this time 2016-05-26 17:49:33
success round debitur at 2016-05-26 17:55:04
