[{
	"id":1,
	"text":"Call Center Menu",
	"children":[{
		"id":13,
		"text":"index.html"
	},{
		"id":14,
		"text":"about.html"
	},{
		"id":15,
		"text":"welcome.html"
	}]
},{
	"id":2,
	"text":"Call Center Menu",
	"children":[{
		"id":13,
		"text":"index.html"
	},{
		"id":14,
		"text":"about.html"
	},{
		"id":15,
		"text":"welcome.html"
	}]
}]

